<?xml version="1.0" encoding="UTF-8"?>
<svg width="14px" height="14px" viewBox="0 0 14 14" version="1.1" xmlns="http://www.w3.org/2000/svg" xmlns:xlink="http://www.w3.org/1999/xlink">
    <!-- Generator: Sketch 50.2 (55047) - http://www.bohemiancoding.com/sketch -->
    <title>Icon/14x14/Arrow/Left</title>
    <desc>Created with Sketch.</desc>
    <defs></defs>
    <g id="Icon/14x14/Arrow/Left" stroke="none" stroke-width="1" fill="none" fill-rule="evenodd">
        <path d="M4.17538687,7.42828313 L9.57175431,12.8228567 C9.80854331,13.0590478 10.1921794,13.0590478 10.4295663,12.8228567 C10.6663553,12.5866657 10.6663553,12.2030296 10.4295663,11.9668386 L5.46123285,7.00029898 L10.4289684,2.03375937 C10.6657574,1.79756833 10.6657574,1.41393228 10.4289684,1.17714328 C10.1921794,0.940952239 9.80794536,0.940952239 9.57115636,1.17714328 L4.17478892,6.57166704 C3.94163746,6.80541645 3.94163746,7.19508184 4.17538687,7.42828313 Z" id="Left" fill="#000000" fill-rule="nonzero"></path>
    </g>
</svg>