<?xml version="1.0" encoding="UTF-8"?>
<svg width="14px" height="14px" viewBox="0 0 14 14" version="1.1" xmlns="http://www.w3.org/2000/svg" xmlns:xlink="http://www.w3.org/1999/xlink">
    <!-- Generator: Sketch 52.2 (67145) - http://www.bohemiancoding.com/sketch -->
    <title>UI/Icons/Review</title>
    <desc>Created with Sketch.</desc>
    <g id="UI/Icons/Review" stroke="none" stroke-width="1" fill="none" fill-rule="evenodd">
        <path d="M13.1471294,10.4726226 L12.4390733,8.41198086 C12.7803746,7.71428232 12.96074,6.93834211 12.9619543,6.15761597 C12.9640496,4.80010156 12.4388352,3.51654292 11.4830296,2.54340322 C10.5270335,1.57007304 9.25311819,1.02216706 7.89591333,1.00066608 C6.48858713,0.978426964 5.16576479,1.51373713 4.17126697,2.50821114 C3.2123184,3.4671359 2.68043696,4.73131271 2.66360285,6.08223157 C1.71846444,6.79383551 1.16060562,7.90329096 1.16243903,9.08832129 C1.16332003,9.64287043 1.28813525,10.1941099 1.52464606,10.6925851 L1.0369333,12.111888 C0.953096136,12.3558753 1.01433703,12.6207922 1.19677394,12.8032291 C1.32516075,12.9316397 1.49443039,13 1.66850977,13 C1.74175121,13 1.81584984,12.9879042 1.88811504,12.9630697 L3.30744179,12.475357 C3.80591695,12.7118678 4.35715642,12.836683 4.91170556,12.837564 C4.91370565,12.837564 4.9156105,12.837564 4.91761059,12.837564 C6.12028459,12.8375164 7.23819281,12.265276 7.94720139,11.2969698 C8.68502081,11.2775404 9.41503035,11.098937 10.0749891,10.7760889 L12.1356546,11.4841688 C12.2215157,11.5136702 12.3095674,11.5280518 12.3965951,11.5280518 C12.6034617,11.5280518 12.8046138,11.44681 12.957216,11.294184 C13.1739878,11.0773884 13.246753,10.7625883 13.1471294,10.4726226 Z M4.91756297,12.1119118 C4.91601528,12.1119118 4.91437235,12.1119118 4.91282466,12.1119118 C4.42199271,12.1111737 3.93456568,11.9901681 3.5033317,11.7620149 C3.41466098,11.7151318 3.31056098,11.7070124 3.21574713,11.7395853 L1.76037111,12.2396795 L2.26046539,10.7843273 C2.29303831,10.6894897 2.2849427,10.5853897 2.23803579,10.4967428 C2.00988251,10.065485 1.88887698,9.57808176 1.88811504,9.087226 C1.8869007,8.29768993 2.19403378,7.54934622 2.73112975,6.98898728 C2.90656634,8.05846471 3.4162801,9.04398593 4.20636381,9.82002138 C4.99061393,10.5903185 5.97642087,11.0807695 7.04008852,11.2411101 C6.47844381,11.794683 5.7213616,12.1119118 4.91756297,12.1119118 Z M12.4440497,10.7810653 C12.4234059,10.8017091 12.3989286,10.8073284 12.3714035,10.7978518 L10.165398,10.0398171 C10.1270867,10.0266499 10.0872277,10.0201258 10.0475116,10.0201258 C9.98896134,10.0201258 9.93062534,10.0342931 9.87783721,10.0622467 C9.2479751,10.3954524 8.5362283,10.5721748 7.81948127,10.5732701 C7.81712402,10.5732701 7.81498106,10.5732701 7.81262381,10.5732701 C5.41101409,10.5732701 3.4272806,8.62237143 3.38923124,6.22133316 C3.3700637,5.01211125 3.8300371,3.87565457 4.68438565,3.02130601 C5.53873421,2.16695745 6.67538138,1.70715073 7.88443662,1.72619922 C10.2877845,1.76432001 12.2400166,3.75172033 12.2363021,6.15647306 C12.235183,6.87322009 12.0584845,7.5849907 11.7253026,8.21480519 C11.6783957,8.3034521 11.6703001,8.40755209 11.702873,8.50238976 L12.4608838,10.7083953 C12.4703366,10.7360156 12.4646697,10.7604691 12.4440497,10.7810653 Z M9.97403208,4.22636107 L5.65097743,4.22636107 C5.45058733,4.22636107 5.28815133,4.38882087 5.28815133,4.58918717 C5.28815133,4.78957727 5.45061114,4.95201327 5.65097743,4.95201327 L9.97403208,4.95201327 C10.1744222,4.95201327 10.3368582,4.78955346 10.3368582,4.58918717 C10.3368582,4.38882087 10.1744222,4.22636107 9.97403208,4.22636107 Z M9.97403208,5.71859591 L5.65097743,5.71859591 C5.45058733,5.71859591 5.28815133,5.88105571 5.28815133,6.08142201 C5.28815133,6.2817883 5.45061114,6.44424811 5.65097743,6.44424811 L9.97403208,6.44424811 C10.1744222,6.44424811 10.3368582,6.2817883 10.3368582,6.08142201 C10.3368582,5.88105571 10.1744222,5.71859591 9.97403208,5.71859591 Z M8.30995606,7.21078313 L5.65095362,7.21078313 C5.45056352,7.21078313 5.28812752,7.37324293 5.28812752,7.57360923 C5.28812752,7.77399934 5.45058733,7.93643533 5.65095362,7.93643533 L8.30993225,7.93643533 C8.51032235,7.93643533 8.67275835,7.77397553 8.67275835,7.57360923 C8.67275835,7.37324293 8.51034616,7.21078313 8.30995606,7.21078313 Z" id="review" fill="#000000" fill-rule="nonzero"></path>
    </g>
</svg>